…
Identify outliers without excluding them:

``` r
tukey(data = tukey_data , 
      dv = x, 
      tukey_crit=3, 
      exclude = FALSE)
# A tibble: 3,010 × 11
   group      x x_trialsInSet x_IQR x_Quant25 x_Quant75 x_Tukey_lower_limit x_Tukey_upper_limit x_outlierTukeyLow x_outlierTukeyHigh x_outlierTukey
   <chr>  <dbl>         <int> <dbl>     <dbl>     <dbl>               <dbl>               <dbl>             <dbl>              <dbl>          <dbl>
 1 A      0.810          3010  38.7      1.68      40.3               -114.                156.                 0                  0              0
 2 A     -0.813          3010  38.7      1.68      40.3               -114.                156.                 0                  0              0
 3 A     -0.393          3010  38.7      1.68      40.3               -114.                156.                 0                  0              0
 4 A      0.895          3010  38.7      1.68      40.3               -114.                156.                 0                  0              0
 5 A      1.73           3010  38.7      1.68      40.3               -114.                156.                 0                  0              0
 6 A      0.593          3010  38.7      1.68      40.3               -114.                156.                 0                  0              0
 7 A      0.846          3010  38.7      1.68      40.3               -114.                156.                 0                  0              0
 8 A      2.35           3010  38.7      1.68      40.3               -114.                156.                 0                  0              0
 9 A      0.871          3010  38.7      1.68      40.3               -114.                156.                 0                  0              0
10 A      1.16           3010  38.7      1.68      40.3               -114.                156.                 0                  0              0
# ℹ 3,000 more rows
…
<img src="man/figures/README-unnamed-chunk-3-1.png" width="100%" />

Identify outliers and exclude them:

``` r
tukey_data  %>%
    tukey(x, exclude = TRUE)
# A tibble: 3,000 × 11
   group      x x_trialsInSet x_IQR x_Quant25 x_Quant75 x_Tukey_lower_limit x_Tukey_upper_limit x_outlierTukeyLow x_outlierTukeyHigh x_outlierTukey
   <chr>  <dbl>         <int> <dbl>     <dbl>     <dbl>               <dbl>               <dbl>             <dbl>              <dbl>          <dbl>
 1 A      0.810          3010  38.7      1.68      40.3               -114.                156.                 0                  0              0
 2 A     -0.813          3010  38.7      1.68      40.3               -114.                156.                 0                  0              0
 3 A     -0.393          3010  38.7      1.68      40.3               -114.                156.                 0                  0              0
 4 A      0.895          3010  38.7      1.68      40.3               -114.                156.                 0                  0              0
 5 A      1.73           3010  38.7      1.68      40.3               -114.                156.                 0                  0              0
 6 A      0.593          3010  38.7      1.68      40.3               -114.                156.                 0                  0              0
 7 A      0.846          3010  38.7      1.68      40.3               -114.                156.                 0                  0              0
 8 A      2.35           3010  38.7      1.68      40.3               -114.                156.                 0                  0              0
 9 A      0.871          3010  38.7      1.68      40.3               -114.                156.                 0                  0              0
10 A      1.16           3010  38.7      1.68      40.3               -114.                156.                 0                  0              0
# ℹ 2,990 more rows
```

Outlier exclusion groupwise:

``` r
tukey_data  %>% 
  group_by(group) %>% 
  tukey(x)
# A tibble: 3,010 × 11
# Groups:   group [5]
   group      x x_trialsInSet x_IQR x_Quant25 x_Quant75 x_Tukey_lower_limit x_Tukey_upper_limit x_outlierTukeyLow x_outlierTukeyHigh x_outlierTukey
   <chr>  <dbl>         <int> <dbl>     <dbl>     <dbl>               <dbl>               <dbl>             <dbl>              <dbl>          <dbl>
 1 A      0.810          1000  1.44     0.275      1.71               -4.04                6.03                 0                  0              0
 2 A     -0.813          1000  1.44     0.275      1.71               -4.04                6.03                 0                  0              0
 3 A     -0.393          1000  1.44     0.275      1.71               -4.04                6.03                 0                  0              0
 4 A      0.895          1000  1.44     0.275      1.71               -4.04                6.03                 0                  0              0
 5 A      1.73           1000  1.44     0.275      1.71               -4.04                6.03                 0                  0              0
 6 A      0.593          1000  1.44     0.275      1.71               -4.04                6.03                 0                  0              0
 7 A      0.846          1000  1.44     0.275      1.71               -4.04                6.03                 0                  0              0
 8 A      2.35           1000  1.44     0.275      1.71               -4.04                6.03                 0                  0              0
 9 A      0.871          1000  1.44     0.275      1.71               -4.04                6.03                 0                  0              0
10 A      1.16           1000  1.44     0.275      1.71               -4.04                6.03                 0                  0              0
# ℹ 3,000 more rows
…
